
struct record_key {
  char *s;                /* название ключа. Может принимать значения 
                          RE (реакция), DD (измеряемая величина), 
                          P (частица) и др.*/
  enum keytype key, par;  /* id ключа и его родителя  */
  int  noval;             /* значение ключа, если оно есть. Равно нулю 
                          для ключей EXPERIMENT, REACTION-DATA и др.. */
  void  (*vy_init)(void); /* адрес функции для чтения допустимых значений 
                          ключа из словаря PPDL при запуске базы */
  void* (*s2t)(char*);    /* адрес функции, переводящей строку ЗНАЧЕНИЕ
                          в переменную типа {struct type_КЛЮЧ  */
  char* (*t2s)(void*);    /* адрес функции, переводящей переменную типа 
                          struct type_КЛЮЧ в строку. */
  char* (*t2h)(void*);    /* адрес функции, вычисляющей уникальный ``хэш'' 
                          по переменной типа struct type_КЛЮЧ */
  int   (*eq )(void*,void*); /* возвращает 1, если две переменные одного 
                            типа struct type_KEY равны, 0, если не равны */
};
